{
    "key": "group_588b632f5ea8d",
    "title": "Content - Article",
    "fields": [
        {
            "key": "field_588b6341c1a2a",
            "label": "Flexible Content",
            "name": "flexible_content",
            "type": "flexible_content",
            "instructions": "",
            "required": 0,
            "conditional_logic": 0,
            "wrapper": {
                "width": "",
                "class": "",
                "id": ""
            },
            "button_label": "Add Content",
            "min": "",
            "max": "",
            "layouts": [
                {
                    "key": "588b6397da16f",
                    "name": "title_authors",
                    "label": "Display Title",
                    "display": "block",
                    "sub_fields": [
                        {
                            "key": "field_588b63d3c1a2b",
                            "label": "Title",
                            "name": "title",
                            "type": "text",
                            "instructions": "",
                            "required": 0,
                            "conditional_logic": 0,
                            "wrapper": {
                                "width": "",
                                "class": "",
                                "id": ""
                            },
                            "default_value": "",
                            "maxlength": "",
                            "placeholder": "",
                            "prepend": "",
                            "append": ""
                        },
                        {
                            "key": "field_5914aff08288f",
                            "label": "Book Review",
                            "name": "book_review",
                            "type": "true_false",
                            "instructions": "",
                            "required": 0,
                            "conditional_logic": 0,
                            "wrapper": {
                                "width": "",
                                "class": "",
                                "id": ""
                            },
                            "message": "",
                            "default_value": 0,
                            "ui": 0,
                            "ui_on_text": "",
                            "ui_off_text": ""
                        },
                        {
                            "key": "field_59356d5297fb3",
                            "label": "Summary for Table of Contents",
                            "name": "summary",
                            "type": "wysiwyg",
                            "instructions": "",
                            "required": 0,
                            "conditional_logic": 0,
                            "wrapper": {
                                "width": "",
                                "class": "",
                                "id": ""
                            },
                            "default_value": "",
                            "tabs": "all",
                            "toolbar": "full",
                            "media_upload": 0,
                            "delay": 0
                        }
                    ],
                    "min": "",
                    "max": ""
                },
                {
                    "key": "588f695d35941",
                    "name": "interview_display",
                    "label": "Interview Display",
                    "display": "block",
                    "sub_fields": [
                        {
                            "key": "field_588f696e35942",
                            "label": "Interviewees",
                            "name": "interviewees",
                            "type": "repeater",
                            "instructions": "",
                            "required": 0,
                            "conditional_logic": 0,
                            "wrapper": {
                                "width": "",
                                "class": "",
                                "id": ""
                            },
                            "min": 0,
                            "max": 0,
                            "layout": "table",
                            "button_label": "",
                            "collapsed": "",
                            "sub_fields": [
                                {
                                    "key": "field_588f698935943",
                                    "label": "Interviewee",
                                    "name": "interviewee",
                                    "type": "taxonomy",
                                    "instructions": "",
                                    "required": 0,
                                    "conditional_logic": 0,
                                    "wrapper": {
                                        "width": "",
                                        "class": "",
                                        "id": ""
                                    },
                                    "taxonomy": "interviewee",
                                    "field_type": "select",
                                    "multiple": 0,
                                    "allow_null": 0,
                                    "return_format": "object",
                                    "add_term": 1,
                                    "load_terms": 1,
                                    "save_terms": 1
                                }
                            ]
                        }
                    ],
                    "min": "",
                    "max": ""
                },
                {
                    "key": "588b653674f88",
                    "name": "1_column",
                    "label": "1 Column",
                    "display": "block",
                    "sub_fields": [
                        {
                            "key": "field_588b653e74f89",
                            "label": "Content",
                            "name": "content",
                            "type": "wysiwyg",
                            "instructions": "",
                            "required": 0,
                            "conditional_logic": 0,
                            "wrapper": {
                                "width": "",
                                "class": "",
                                "id": ""
                            },
                            "default_value": "",
                            "tabs": "all",
                            "toolbar": "full",
                            "media_upload": 1,
                            "delay": 0
                        }
                    ],
                    "min": "",
                    "max": ""
                }
            ]
        }
    ],
    "location": [
        [
            {
                "param": "post_type",
                "operator": "==",
                "value": "article"
            }
        ]
    ],
    "menu_order": 50,
    "position": "normal",
    "style": "default",
    "label_placement": "top",
    "instruction_placement": "label",
    "hide_on_screen": [
        "the_content",
        "excerpt",
        "custom_fields",
        "discussion",
        "comments",
        "revisions",
        "slug",
        "author",
        "format",
        "page_attributes",
        "categories",
        "tags",
        "send-trackbacks"
    ],
    "active": 1,
    "description": "",
    "modified": 1511124909
}